text	class
Guardian of the region northwest of Belo Horizonte MG	0
Thursday has little show of MPB Live .... very good!	1
Great service, parking for guests, large and well-lit store!	1
Full of beautiful people working here !!	1
Please always close the doors and turn off computers and monitors before leaving !!! ;)	0
Globe, we bind you!	0
In a little while has Cissa Guimarães in MGTV, talking about Lot of crazy and Santas. Today through Sunday at SESC Palladium.	0
Globe Mines s2	1
Bora turn artist.	0
Only newspaper specializing in Economics, Business and Management of Minas Gerais www.diariodocomercio.com.br.	0
Revelation of the university backcountry MG http://m.youtube.com/watch?v=4P3HCXYBO_E access www.thiagolins.com.br	0
I look here in boredom after the teacher dispensing us. :(	-1
Coffee good too!	1
Price honest ...	1
I love the people here, super interlocking and humorous :)	1
You need to improve laboratories	-1
best lessons are here ..	1
Dessert perfeitaaaaa !!!!!	1
Food maravilhosaaa !!!! Very good mesmooooo !!!!	1
Expensive food and bad! fucking care followed cozinnheiros pigs!	-1
Food delicious, great service and very good price !!! Love!!!!	1
The best homemade food in the area.	1
The best university backcountry http://m.youtube.com/watch?v=4P3HCXYBO_E access www.thiagolins.com.br #sucesso #arrochamineiro #thiagolins	1
Without doubt the best pasta on the plate I've ever eaten!	1
wonderful clothes !!!	1
Many great launches!	1
There is a unity in Orphanage Street. The clerk Christina is an expert in movies! It is worth asking for directions to her before running pras shelves.	1
Quiet! ....	1
Aki all quiet.	1
My house, my warmth ...	1
As I said already cross the street and go to Hirota	0
It has no functioning boxes ... Only 3 !!!	-1
Want to suffer ??? Come here!!! terrible queues!	-1
Best place to withdraw cash security	1
This, in particular, is increasingly worse! Queues long and dirt!	-1
Bread with cheese eh the best	1
Best Supermarket in the region	1
Well selective and has it all !!! "	1
Best place to live! All the necessary structure in one place.	1
Reasonable price, but good quality	1
eyebrow design made by Junior, very good!	1
The best wash the area! Watch live on www.lavarapido.com/aovivo/ To aid the iPhone App download Ustream and look for Lavarapido.com	1
Very good, confident, have a wash with spectacular resin, worth checking out!	1
Beautiful place, God !!	1
Ball show structure.	1
Once you're here, be sure to eat the fried cheese curds with rubacão.	0
NOTHING BETTER THAN HOME SWEET HOME.	1
Wonderful place I go when I get tired from work.	1
Optimal entrance to Metro !!! B)	1
The place where I was raised.	0
Main Street Copacabana, or rather AVE. Considered the HEART of the neighborhood!	0
Simply the best feijoada in town! Every Saturday at the Rio Othon Palace terrace, 30th floor. Besides the food that is out of perfect really, the view is spectacular of the entire Copacabana beach!	1
Copacabana princess of the sea, In the morning you are life to sing, And the evening the setting sun, always leaves a longing, In people ... <3	1
The network with blanket and surrounded by good books ...	1
My street! The correct name is actually Rua Professor Gaston Bahia.	0
House Paty, very good	1
House fofis, very fun!	1
On morals, moral morals !!! Living revelry and mayhem! #NaMoral in AR!	0
Headquarters always clean. Military always prepared. Car always immaculate. Service is always excellent.	1
Will spend the next New Year's Eve this season? Go back and subway! Do not forget to ensure in advance its Special Card New Year's Eve MetrôRio. Avoid disorders.	0
It has a King Mate within the station. It is expensive means, but is a go forward to who's in a hurry.	0
The Catacomb Park is a nice space that mixes works of art and green. Take a light trail at the highest point of the hill and enjoy the most beautiful views of the city. Check out!	1
How nice to come home for lunch.	1
Excellent professional! Attentive and competent! I recommend!	1
Professional excellent and ask! Indian for demanding customers like me!	1
Hop in, hop out. No stress! Rather buy credits with your blue card,skip big lines, tap the machine and go! Credits never expire.Forget the "Unitário" ticket,but if it expire you can check for R $1,00	0
Use light clothing or go short and T-shirt only. Going back and walk along the whole border is 8 km. But you do not need much. Walk 2 - 3 km and then stop for a coconut water at a kiosk watching the sea.	0
Where to try for some order in the mess I make.	-1
It has the best sindicas the river, and the best Concierge Cup.	1
Staying close to almost everything	0
There is nothing better than you our home ...	1
Lack seller.	-1
In the surf, it's great ice cream. #ficaadica	0
Tidy and organized	1
You live in privê?	0
All wonderful	1
Good, I loved the service.	1
Snack tasty, cool and good value service. It also has a varied menu.	1
the pizza is good ...	1
UP TO TO TO TO TO \ o /	1
Very good, but bad service if crowded. (Y)	0
great place to meet friends	1
Because to stay in the dark looking for the light ...	0
Great service.	1
I loved the menu, service and facilities.	1
The Bode roast is great, with mutton recommend!	1
Shrimp in garlic and oil on the plate is great!	1
Wifi password 1507510783	0
chic place to buy drugs.	0
Great service.	1
A line that takes you to the city center, but it takes a lot to get through!	-1
Shrimp broth of delights.	1
excellent seafood	1
It is in Recife, in Iputinga !!!!!! Great.	1
Excellent or lava fast	1
Here it is cheaper and has promotion. ....	1
The best pasta !!	1
A good school is very nice to come back to her.	1
Ask half of Brahma, stupidly cold.	0
Aah as I love my gum here: D	1
Nothing better than our own home: D	1
Fashion viola !!	0
A welcoming church that exalts one LIVING GOD !!!!	1
Accept Sapore Ristorante card	0
Sharpens up nail pliers also ...	0
If invited and pq Vc and dear! Here we are happy and make our history, we love and we found our safe haven!	1
Excellent cost benefit, plenty of space and diverse areas.	1
Excellent neighborhood, very calm !!!	1
Warm bread all the time, always good service.	1
Always with great row in all cases!	-1
The service is not the best	-1
Avoid this stretch on weekdays from 06h30m to 08h30m.	0
Seller browse Cicero. Great service.	1
Only appear if it brings good!	0
Common go. Osnir	0
The best computer is here ù.ù I point mt ...	1
Great service!! Look for Paul, very good seller !!! Understands all doors and windows !!!	1
Books published by FEB with discounts.	0
Shoulder bag. Speedy bandouliere.	0
invites me I will	0
Dear, MIMO - Clearwater is now on Foursquare!	0
good afternoon!	0
LEMONADE here is very excellent !!	1
Best SMU and nearby restaurant!	1
Comidinha simple home, but little varied. Fair price and, for lovers of red meat, barbecue.	0
Best nearby restaurant SMU !!	1
Very good food! Very nice atmosphere! I recommend! Ah! Good price! Importantly!	1
Financing Real Estate POUPEX - is PERFORMING TIME	0
Excellent for those who want real estate financing, but has no patience for the time it takes in other banks. The POUPEX hits agility record in the process!	1
Mass of healing and deliverance ...	0
Beautiful church, ventilated, well located, usually empty and quiet, with very inspired priests! I recommend the Christmas Mass!	1
beautiful church !!! It was where I spent my childhood, adolescence and crismei. I love this place!!!	1
Nice !! Ta praying?	1
Wonderful place!	1
Headquarters of the 4 elements Band (pop rock). Essays on Mondays!	0
Local fairly quiet and well located	1
It does not smell or stink ...	0
Come to Suvaco Wing!	0
Big houses and beautiful '	1
Viewing master brewers in tlc	0
More or less, even for the price.	-1
Very bom..variedades food and good price!	1
Pizza good and cheap !!!	1
Best Southwest block ... it was better, but still good	1
Sucks seek another bank	-1
Very good ... wonderful professionals	1
Shop with very good clothes and capes are perfect and very good service :)	1
terrible service ... last time ...	-1
More or less	0
Great care has only waitresses.	1
I found the bad service, grumpy waitress and educated evil! Be welcome in Teresina is getting harder and harder!	-1
Best thin crust bread in town. Those who like sweet bread, try the mother tongue.	1
Best breakfast is the evolution of the jockey ... fried Best Quality cake already eaten ....	1
Tapioca with cheese	0
Indeed, the chicken pot pie is very yummy!	1
Aaamo of coffee aki morning, but the price increase since the beginning of the year was totally clueless, cm almost all the commerce of the East Side ...	0
One of the best Teresina. Works properly without stalling.	1
The best in town!	1
Despite the small shop, the service is first.	1
It works up to 19h.	0
Liked it! I always have my suits.	1
Lawyer has 10% discount of caapi.	0
Best there is no church!	1
Great service >>>	1
Lousy service, bovine picanha not enjoyed.	-1
Orange juice in the jar too watery and that could put the jar oeka half but only natural same ....	-1
Good for events	1
Super ballad particular ... Connect to Joao!	0
Watch the movie Power play	0
Movie indomitable dreamy, very good!	1
great food	1
Strawberry pie is a must!	1
Never go !!!	-1
Taste the fried cassava, very good!	1
Excellent restaurant !! Buffet KG, exellent food, very nice atmosphere with great service !! great prices !!	1
The baked fish on Saturdays are delicious !! Gold, tambaqui, salmon and curvina '' !! Always varieties !!	1
Saturdays beyond the bean stew is baked fish (tambaqui pacú, curimbatá) !! Very good!!	1
Grandson and Denise are excellent teachers spend a lot of security in class !! Worth, come dance !!!	1
Enough to be hard to describe just how wonderful to be here. Great structure and location, has parking. And now with pilates classes too! Perfect!	1
Home sweet home...	1
The best of School English!	1
Just pagodeiro here to out	-1
Office of Civil Law, Criminal, Family and Labor	0
Products for hair Itallian Hairtech, great price and good service :))	1
Very good!	1
It was extraordinary!	1
A cozy lounge kkk	1
Very good to hit a munchies!	1
Best dog in town!	1
Very good to eat here!	1
Great!! Ask the Queue	1
Epilation is great. Do not need an appointment, all professionals have the same training. Waxing, wired in the clamp. And now you have a BEAUTIFUL room.	1
Great service and excellent professionals.	1
No need to make an appointment, just come. They use homemade wax and make threading wire.	0
French fries!!! Hahaha ... That buck !!	1
Some friends of ZÃ © zitosâ € |	0
THE MOST TRADITIONAL	0
The ribs and a must see !!! And the service always special	1
Beer always well chilled	1
Nothing better than my place :)	1
Before coming, call and make time ....	0
I shaved. The first did da, the second did tchun and da, da, da, tchannnnnn .... hehe!	0
REGISTER HERE WWW.PRIPLES.COM/OMARK CONTACT: TIM 7491253932 7488210330 The	0
early entry by Ladeira's Hospital at the time of the Adventist College. The Hospital Santa Izabel walking is long and labyrinthine.	0
One of the best multi-sport complex saver!	1
Pure health !!!	1
mass Academy !!!	1
Local show the ball, to practice sports.	1
Cool	1
Great food and great service. Staff are very helpful.	1
Where anything can happen.	0
I recommend the course of Adm accounts payable and receivable and treasury.	0
spectacular buffet ..	1
Very beggar .... Afffff	-1
You get the mobile crazy here? Keep this shit!	-1
Dangerous! Mostly at night.	-1
Local super tense .. Watch your cell	-1
Be very careful when using the phone here! The rate of assaults is huge	-1
A small gotica church lost in the historical center of Salvador	0
Very good service	1
The emergency ENT is closed for renovation and UDT eh always crowded !!!	-1
Look for the HGE in an emergency. Is sure to be met with more brevity.	0
I had to threaten a complaint with the police to accommodate an apartment Natalia ... Do not come to this hospital ... poorly	-1
shit emergency	-1
It has all the costumes and accessories that u imagine!	0
Thanks! This one is new! Pen Drive 4GB for $ 20.00	0
Here's Pen Drive 2GB for $ 15.00	0
Great choice of shopping ...	1
Promotions and here. .	0
Mechanics, body shop, paint	0
Gustav mouth pig.	-1
Great service and good variety of items for fishing	1
Only $ 3.00 and you can have the chance to change their lives	0
Excelent and offers many varieties of clothes (Adult, Children, male and female)	1
Best Camelódromo clothing store Campinas. Wholesale and retail with best prices. Service very good, traditional store and well known in the region. I recommend. 10. Note SN °.	1
Galera linked to the best clothing brands, here at Shop REPLAY - Camelódromo OK, you will find Hollister, Abercrombie, Tommy Hilfiger, Ralph Lauren, US Polo, Armani Xchamge among others.	0
All in graphic material ...	0
Everything in graphic material. Blocks, cards, flyers, envelopes, folders, etc.	0
Only place that always has my dye, has it all rs	1
Store very complete!	1
great teachers	1
A college within everyone's reach.	1
This uses our Amway products. Place your order you too 62 81828785	0
Large menu has pie, pies, soups and ice cream. My tip is to Goias pie that besides being giant and very tasty.	1
Bad and slow service, lack of attention and dialogue with the customer, very low technical knowledge and abusive prices for simple services. 60 reais to upgrade iOS? HORRIBLE	-1
Humm * - * very good	1
Great mush.	1
Max Import Brazil	0
service on mobile phones and computers of all brands	0
Best unlocking shop and repair Games in Goiania, no doubt! Wesley (store owner) other bag.	1
Great place, good food, several options and the principal: no queues!	1
Every Wednesday is that chess chicken	0
House of God, consecrated place! Come to meet you too. Much love and blessings	1
Every Thursday is Growing in Grace Group to 20h. Visit us.	0
I recommend it, great local beach and super nice environment	1
Try the panelada - Best in town! (Via @Foodspotting)	1
Organizaçao military	0
So seeing and witnessing every day.	0
Strength and perseverance to live away from family and people who love u	0
You want to have the party of your dreams without worrying? Karina Renata will help you!	0
Live life as if it were his last minutes on earth.	0
I work here. it's good ...	1
Close to home.	0
Quiet street and family .......	1
that such a visit the shop ow line	0
Quality always! above all confidence! You can try!	1
high quality automotive cleaning!	1
Wash with polishing wax Meguiars choice, single Lavajato of foraleza that uses the best of the world automotive wax ..	1
There is no place like home!	1
Enjoy what you're here to see "Summer and the City", the second volume of the series "The Carrie Diaries," which tells the story of the protagonist of "Fri and the City." More on.fb.me/zkWdhG	0
When you come by use mask or go up the car windows.	-1
Or stop breathing !!! hahahahaha	-1
Even at this track 60 km you can go fast in 120km ...	0
Very good!	1
Many accessories to your style and with a lot of trends.	0
Adoroooo. D +.	1
Marcos makes a perfect brush ....	1
Cut male and female, manicure and pedicure, waxing	0
Lu the best Fortaleza manicure	1
Hair hydrated for 15 days like you have never seen !!! Only in the Hall milestones and lu	1
Carol Cavalcante lives here!	0
A bit of everything we find here, nor is it expensive!	1
very good vc prove it	1
Where least expected it I found what I wanted ... But the delay in cx. Cry passion...	-1
My son Thales interning and preparing for graduation in Eng. Production in December. filhão success !!! ..	1
exploited workers	-1
Best tacacá of Belem!	1
Sensational...!!!	1
Shop specializing in parts for: Gas cookers, blenders, simple and pressure cookers, electric irons and washing machines.	0
Remember is living.	0
Traditional fireworks store, toys and stationery.	0
terrible service.	-1
Has two store the old service has too much and demenos and new in the box has mto box and less attendant	0
Optimal shop with all kinds of fabric! Full place .. I recommend Funcionaria Jane Monteiro, Agility, Caring and competent!	1
Park in the trade is difficult, but the store is good prices and service. I will come back ;)	1
Excellent decor prices.	1
Great graphics, prints with enough quality for various types of material.	1
Terrible attendance! Too slow...	-1
wants to see new and interesting things top notch ... will it!	1
Employees are kind unprepared.	-1
Terrible service, the attendants are unprepared	-1
The juices are excellent, the bad mood who answers sometimes eh q not worth!	0
Resale Roland, IMPRIMAX, 3M	0
Beautiful landscape	1
beautiful spot but dangerous means	0
Look no vacancy. Almost impossible to find.	-1
A photograph made by late afternoon, it's beautiful to see the sunset, and the vultures saying goodbye to another day, a little way through French.	1
Location that has already been more beautiful today lack security and be more valued and where it already spends more people every day students and workers	-1
Arrive early!	0
only works until 11: 45h.	0
Great course CPA10	1
Very good milkshake, I recommend	1
If you are here, fill the bag Jonathan Vieira	0
Lately the service of the boxes is too slow!	-1
more please agility ...	-1
Very slow service	-1
BEAUTY SALON BEST AND BEAUTY OF THE AREA ... Recomendadissimo!	1
coolest shop	1
I need strings for my guitar:. D	0
Anything speak with Marcondes, shop owner and always helpful.	0
It has everything from musical instruments to low amperage lights. q Too bad not all attendants are friendly.	-1
And my day is not over yet!	0
SUS Accountability	0
House Tavares Bastos - House Alagoas people.	0
The people's house, only not.	-1
slow transit d +	-1
As always stopped the traffic!	-1
Undoubtedly, the place more rock and roll city! Nice variety and good service. Check out.	1
My new favorite store. CD's, DVD's, shirts, beautiful and váriooos toys mugs. It's a good place for collectors =)	1
Great place for those who need to take loans.	1
Already was better.	-1
Putz ... Has same. Row, no fruit, no quality ....	-1
Great service, good price, and fast delivery of applications. :)	1
Search instructor Samanta	0
Ladder Fom	0
Smell of gasoline is a wonder	1
Great place! So to be better used by the people and a little more respect from drivers.	1
Dream Waltz, simply!	1
Industry Union of Amazonas Construction	0
The service and very good.	1
Hot coffee and cheap;)	1
great coffee and cheap !!!	1
It's good ... The service is fast and well done.	1
kyokushin karate and the best	1
Inacabável expected ...	-1
simple but excellent home cooking environment.	1
Family Month: lecture series. Every Sunday at 09: 45h and at 18: 30h. God bless your home.	0
Taste the pudding açai ... Very good ... Me gusta ... =}	1
Great service, very good food, reasonable price ... recommend ...} =	1
Very good service, and great prices!	1
Service good, always worrying about the interests of each client	1
When it comes in Fox search for Frank consultant. The best!	1
fair price alignment and balancing, great waiting room, and good service, recommend!	1
House of my love	1
There is a good tip for this place ... It's hell!	-1
Call me before you came to visit ...	0
great care	1
terrible service .. In addition to the delay in the proceedings ... Vc only entitled to 10 minutes per session ...	-1
Lorena is not well !!! : /	-1
super nice place	1
A house full of crazy people and always hits with "expected or not" but with cool and beautiful people. my house	1
very good meat Sun	1
Very good food, have tasted almost everything! Highly recommended!!! #IBIZA	1
The pot roast is all good, it seems that the mother does!	1
Here and cut quality and price down ..	1
bommmmmmmmmmmmmmmm	1
Top top....	1
Much gas here	0
A very good place to be!	1
Close .....	0
Great memories	1
low price	1
Great prices	1
Price good and here	1
novo mix novo   mix	0
Great place to cut the mane, and he talks up too. kkk	1
I took the city	0
The best place in the world. . .	1
Great place to work out	1
Here all in best price and best quality products.	1
Place ugly, full of holes Avenue	-1
This rice is spectacular. Barbecue first!	1
Mess. It is the best definition. A fair even.	-1
Good place for those who want economic time shopping ...	1
rsrsrsrsrsrsr miss that hole!	0
So to be + clean and planned.	-1
Home Sweet Home!!!	1
Beautiful view from the restaurant. Room comfortable but do not count on laundry late at night. Local bucolic and pleasant.	1
Very good, I recommend!!	1
one of the best floor Jolly Harbor views 16.	1
The wireless password on all floors is 5132159500	0
Smal, nothing to complain about	1
Great gym!	1
Never desista.Insista Think positive.	1
Close to the palace of the governor and the Sao Pedro Theater	0
CAUTION !!! thieves !! Passed 5 min. They charge $ 10.00. Thievery! Never!!!!!	-1
The monthly fee is not low, but it is one of the cheapest in the downtown area.	0
Sweet Home!!!	1
Nice space and air conditioning, comfortable seating. Worth a visit!	1
I confess I do not like the theater. But the pieces are always sensational.	0
Breathless!! hot room d +	-1
Despite complaints on the Internet, it's a nice hotel. comfortable bed, LCD TV, shower with central heating, breakfast varied and, most importantly, the Internet! Wired and wifi.	1
without any maintenance rooms. Avoid.	-1
Very good! LCD tv, great location, Wi Fi, Great service!	1
Great location ... managers and attentive and polite owner, plus a great breakfast! I recommend!	1
Be sure to present "a" good when you are here !!	0
Beautiful in any season! At dawn and at dusk the colors explode in front of the buildings.	1
Great view!	1
Good accommodation and well located. Liked it.	1
Always pee sitting!	0
The waitress dearest center	1
Sweet pies are delicious and the service is first!	1
VERY GOOD, GREAT PLACE !! IT IS WORTH CHECKING!	1
Eat the "little pot". They will not regret it, I swear.	1
Homemade food! Wonderful! It has wifi and books, worth a visit!	1
to trabalhando	0
Otimo service, pleasant environment. All meet the person with love. Muto good recommend.	1
Great service!!! Treats patients with love! Not to mention q social workers are super cool ... Alias, has one that just wants to be the folds !!!	1
Close to everything, very good!	1
Come all to my bed. End!	0
My sea neh	0
organized great good	1
On the fourth day's soup	0
Wednesday is a day of soup	0
My place !!!	1
only riquezaaa	1
Best pastel region	1
Good is the shrimp pastel	1
Delicia sandwich.	1
Service by the waiter very good, but the delay to leave the snack makes them think about quitting. :-(	-1
Acai rt very melted! = /	-1
Quality service	1
You have no better place than your home to rest on Sunday seeing Flemish play	1
Professional Advertising area, Videos and Photos air, and in general printed. Free estimates!	0
The best prices you find here...	1
Many road signs. Good when we all open.	0
The famous castle kkk	0
Pastelanche	0
district show	1
Massa, Beautiful	1
Passing by Bernardo Vieira	0
Top Academy of Quintas neighborhood!	1
if heads do not drink, drink more if I call ..	0
Customer first	1
Good sunday	1
Terrible attendance	-1
Best place for coffee	1
Beautiful view!	1
nice place to live	1
good afternoon Brazil cowardice elderly couple that was stolen in a country full of World Cup security cade President Dilma cade vc?	-1
#euvinaband Come to my street trying to change something because with this such a world cup it and to deceive the people.	-1
World Cup 2014 Watch, which is repeated misfortune 1950. (hopefully!)	-1
Damn Cup because of the World Cup B1 is about to start here three weeks	-1
so I know it will get the World Cup game and I'll buy 'cause you'll have all the stages and will be pica	1
the worst of this new boot, is going to be popular song at the World Cup. Stay seeing ....	-1
Three times I do not like, Elections, and World Cup Carnival. '-	-1
and you still think it will serve for something the World Cup and Olympics in Brazil?	-1
I'm hoping to Holland to win this World Cup. And Brazil fuck	-1
Where did the "news" that the US, Britain and Germany were ready to take the World Cup?	0
I have spoken here that my year only starts after the World Cup?	0
#euvinaband World Cup in Brazil that do not have public safety ...	-1
Carnival, guns and show the World Cup, all spent already, mainha will give me money or p agr water	-1
I wanted to know q day is going to have the Salvador Carnival World Cup	0
They just saw that the likely players Rooster to go to the World Cup are Victor and Jo.	0
This year will be gone, off carnival, has St. John, election, World Cup, tender	0
Botafogo in this game, the referee also played along. Just in the year of the World Cup such a faux pas ......	-1
the World Cup city stinks a lot of garbage on the streets will cross the street cleaners arms	-1
All happy as a goal in the World Cup at the end of the second half of extra time	1
this is the country that will host the World Cup \ z	-1
Datena help !!! And mta violence and the people still procupado with this world cup. We want and severe laws in order to have peace	-1
Music "Greatest Day" Take That has been selected by England football to encourage selection in the World Cup in Brazil	0
Adriano gave an overview of the world cup!	0
It will hurt to see the "nerd" "myth" #ficaLuigi in the Cup, occupying the grandstands of the stadium OWN, voted one of the five most impressive in the world. It will hurt	-1
tomorrow I'm going to the school record the commercial world cup for Band	0
98 days for the World Cup 2014 FIFA #SalveaSelecao # Brasil2014	1
I love, I tie.	1
ansel and Justin could do that neither ed and came in Brazil p World Cup :-(	-1
Carnival my suitcase're done today!	0
Hotel Vila Gale in Angra dos Reis, where my friend was spending carnaval.Tratar best customer that keeps them no way!	-1
as I will be proud of a country that prioritizes trifles as the World Cup and Carnival, when people die in the ranks of hospitals?	-1
Returning gradually to train, after Carnival does not play ... After not full focus	0
Was thinking as I was born here and in November I was made in the then Carnival	0
Thinking already in carnival 2015 but before has St. John, St. Peter ... And the question is: where Saul will be on those dates?	0
Best carnival / vacation of my life will be for history (:	1
Carnival, you could be at least the entire month ne ... kkk	1
and I took and already bought my ticket two pras carnival nights * - *	1
I'm remembering the Carnival folly and start laughing alone kkkkk	1
lower city is in high meuzovo. street carnival to go to fucking hell.	-1
He came out in the Rio Carnival: Maurão is the new Master Battery loose the Academic Cubango.	0
To burn, TDS received the carnival and I nd	-1
to clash with this video of gay enjoyed taking in the carnival, is a kind of club of closeted?	-1
Hail, hail champions. .. BLACK NATION defines plot for Carnival 2015 and will be presented at the 18th champion of the party in front of headquarters	1
Best carnival / vacation of my life will be for history (: @TomasSouzaa	1
it seems that everything did not have to test and work up before the carnival my teachers decided to put this week. crying	-1
I dreamed I was carnival, there several hits balls took me there one MLK saved me and I paid dps blowjob he p	0
Look there folks! We publish the photos of the Carnival 2014. He appeared in some? Check al.	0
when I went to spend the Carnival in Curuçá playing a music q the beginning was "Woman to be respected she gotta be a bitch ....." ta	-1
To missing of you, carnival was to have spent more not you guys gave, was not this time: '(	-1
not just gores her boyfriend at the carnival, also put on the face ... so will get more fame piranha c q u have qrida	-1
damn, I miss who sent three days followed by college before the carnival? I now have a world of matter to pass a clean	-1
I am pasting the charts carnival in my diary and remembering, as I miss the troupe and R. O. : ((	-1
Finish carnival but mimimi and fofoquinhas not end up face	-1
this song of ivete that ta touching the TVZ reminds me of the carnival	0
We did not know that only has a carnival week, I was finding my sex life stop	0
over the carnival, everyone love again .. bunch of trouxinhasssss	-1
Friday is Carnival in Guaiba, but I will not, I have company to go: /	-1
The person will all year for club and gay party comes the carnival and to where it travels? The Week, floripa	0
cpm to listening to here and remembering aaaaaaa Carnival: (((((((((((((((	-1
Cruise Carnival magrao said pro father to close the barrel now only come k	0
Last exam for tomorrow (: and then: Carnival jimena, Sierra Nevada and London: D	1
I was dreaming of a day of carnival, the guys together, the funny thing was that Amanda was tbm rs	1
Miss you ... I traveled and I was without internet from the carnival. : /	-1
A day to bundled technicians, two days to our sweet carnival, and three ... arrive at three? #gaaaanisimas #NaNaNaComeOn	0
I spent the whole carnival without talking to you, 'cause would not get now?	-1
I just wanted the carnival again	-1
To sleep with delayed from the carnival, help	-1
Listening to the CD in Intersom Square in Carnival, only remembering, it was show too hehe = D	1
Indeed, after the carnival is very subject to few people	0
Some girls started singing LepoLepo here on my street. Carnival is over. Easter coming: D	1
Saturday late afternoon want to drop the last carnival cb and I'm going, nothing will impidir me as you know, is the latter.	1
Some girls started singing "Lepo Lepo" here on my street. Carnival is over. And this song has already TBM. Carnival comes q remember it d new	0
Good remembering carnival and be random screaming UFF UFF's FUCK THE FUCK IS	0
I thought I was going to see me free lepo lepo after Carnival but the staff does not forget	-1
Your game is dirty and I nn me fit, I'm carnival lot of problem to the carnival I came jungle lion'm'm too pro your backyard ..	0
Has passed Christmas, Carnival, in a tou nothing in calpe dps tests lool help someone send time slow	-1
next two weeks full of evidence, and I studied from the carnival: s	-1
Carnival hangover come there Candiba -BA day 03.15.14 municipal club women and men in suits against if they want to clear	0
All tests I did the 2nd period, before the carnival, just because they do not deny studied	-1
I'm already loving this new carnival in the pantry.	1
Just me I'm not ready to go back to nothing routine? If the Carnival holiday wanted to mend with the canopy, I would not complain.	-1
so after the three girls Carnival already posted who are pregnant in the face, only commenting	0
then @_AmDeath arrives at the carnival and I didn't even know who it was, it was more or less &gt;&lt;	0
it was like a matter of class, I forgot that was because of Carnival holidays d, n knew nothing	-1
The brand new this carnival, were Lot of crazy to see the hose, get it out, that's the truth!	0
You get several at the carnival, but when you are evil and troxa here that will stand by you .. Daughter of a bitch	-1
Will post that picture now Carnival in angico in 2012 VSF heuhehueuhe '	0
Saturday is a day of revelry guava II - Surf Carnival ... are 200cxs of litrão Churras + + + Caipirinha Pagoda + DJs + + Abada Mug	0
To you wanting the whole year is not even in February and our bed is a carnival	0
They are finding coz Angela got only 66% have forgotten that week before the issue made sure to burn Fran, was carnival and (continues	0
If this boy knew the disgust that I caught it after the carnival, he did not think 2 times to stop me from sending snap	-1
His trophy wonder and his king is in the belly of a winner and confetti he won. So it's a whirlwind, fantasy of every carnival	0
Start studying after Carnival but Easter logo ta ai .. Let's wait a little longer	0
Who we want to cheat? Another clown in its carnival.	-1
I found offensive in carnival week rain and be cold and when Back to School is a heat of Carai #KCA #VoteTheWantedUK	-1
longing for jessica battalion, geisyanne licks everything and stumbles renatinha all haiehaiw, around carnival, voltaaaaa	-1
I carnival cute on facebook * - *	1
I think the Winter Carnival fansaia	0
aii poorly step carnival is already so jamming AGT evidence vsf	-1
Glad I spent carnival here in Mato Grosso.	1
aai danced both the carnival, to the hope for the next already	1
ii flight tomorrow carnival stage in Santa Maria '-'	0
All that I do will be p see her eyes, will remain affection is missing road or carnival	0
tava seeing the carnival videos and hit mttt missed !!!! best carnival of life c the best people in the best place	1
Waiting for the carnival next year	0
Jeez Sunday has the surf carnival, and I'm not even going kk	0
Carnival passed and still plays lepo lepo everywhere, you can not I get the exchange and this song not enter extinction	-1
My mother is the most bites in the world, she commented c q my 3G tava bad in the carnival, agr then get a message saying q he changed my package	1
It was carnival day care of puff !! I will do aaa party with those kids ... hahahah Daleeee	1
I took photos of my vacation and carnival God has everything kkkkkkk	1
100% of women of my face, 200% are posting who are pregnant ... Carnival earned huh ?? kkkkkk	0
To feeling to dengue ... Soft body, pain in the neck!	-1
Mariana almost crying on the phone cuz think was bitten by dengue mosquito	-1
Cade vc dengue mosquito @LahSantosss	0
I'm dengue again or is a flu bravas	-1
whats my ta stopped so I already wanting to poison hit for not giving dengue kkk	0
Subject boring as fuck. Flood, JJ's fault. Dengue, MAC.Estacionamento's fault, kalil.Ter born of guilt, Aidar's fault ... Q shit!	-1
I was bitten by the dengue mosquito, I'm sad	-1
dry well after the water bath to stop dengue tires.	0
dengue mosquito trying to suck me	0
aiai dear, gotta be very Taylor Lautner to be able to suck me	0
Ai gataa, beware of dengue, whatever ne, pneeu! Ai like me to outlaw, happy.	0
Santa with dengue):	-1
Dilma singing lepo lepo and having the best TA	1
To working more .. I saw increase, cade Dilma going the way ta go into hem strike	-1
I would have passed the stick in té Dilma	0
Dilma more fucking shame the bus fare ta more expensive than marijuana.	-1
The TSE rejects the request of the PSDB to fine President Dilma because of the meeting with Lula at Alvorada Palace last week.	0
Acordaaaa Dilma. Before it's too late ... @ euvinaband	0
If Dilma keep the skill level in trading d c / PMDB, PT predict regional applications in the hot seat on behalf of the alliance.	0
Dilma but shame on the passage of busão're more expensive than marijuana!	-1
You can no longer have four years of Rousseff that Brazil can not stand. Eduardo Campos	-1
Why I followed Dilma mano, explains me kkkkk	0
Brazil can not take four more years of Dilma says Eduardo Campos Array	-1
Dilma sucks!	-1
Dilma quotes slogan: "Every girl is one way, but all the girls need protection" - is the state's obligation to ensure protection to all!	0
After meeting yesterday with Temer, Rousseff decided it will appoint ministers without the approval of the PMDB. It also has meetings scheduled for today	0
Fear and physiological dome of the PMDB use warm cloths promising Dilma that the Convention will decide the future of the alliance with PT ...	0
Campos: "You can not have another four years of Dilma (Rousseff), Brazil can not stand" He meant the BRAZIL, is fed up with getting s / power	-1
Dilma should resign for not sink the country ....	-1
Cock Dilma but shame passing bus but ta guy marijuana ♫ ♪ ♫ ♪ B |	-1
Datena @euvinaband Dilma ta giving the country pros bandits I do not know why a lot of people still vote on it .... Datena vc is a good man	-1
Brazil can not take four more years of Dilma says Campos - Yahoo News- I ALSO THINK, DILMA OUT, OUT PT, PT OUT, OUT PT, PT OUT	-1
A thousand times the smile of Dilma q the cries of Cantanhedes and other widows of the FHC, q only produced worthy disaster a river of tears.	-1
Datena kd Dilma, there were 4 women, kd q shame President	-1
Who saw you and who sees you! FHC Dilma criticizing the wage squeeze imposed on workers.	-1
Mark said the world needs more women leaders.	0
I do not think, look q happened to leave Brazil in Dilma's hand	-1
The splits between Pete and PMDB only served w / highlight figure Dep Eduardo Cunha, moreover, no. bla bla bla ... of dilma and fear.	-1
dilma puts an extra line busão just to give teens I walk with old	0
Dilma PT PSDB damn!	-1
He became a mania say q / qdº Dudu Campos criticizes the government is attacking the dilma. the other vistovalorizam the dilma and less government.	-1
this plane could be with all politicians, including dilma	-1
Fall-of-arm of PMDB and Rousseff Marco Civil x Petrobras. fascinating game. We accompany.	0
Sold their soul to the devil to host the World Cup, they asked for potty Dilma received benefits in droves. Now come pose as victims. ah go	-1
#euvinaband in q day Dilma stop watching the cable TV of the series and put the band she will see q parents she is living. #out Dilma	-1
Where that Dilma is facing the PMDB?	0
Perhaps to suborn the PMDB, Dilma wants to show strength to change the way of doing politics. But she not resist a small wave of the PMDB.	-1
I want to see how that Dilma will defend itself when attacked by the exponential growth of crime and public chaos situation	-1
Dilma reveals that after the communist coup already matured, the PMDB, will have no utility.	-1
President Dilma holds meetings to draw electoral alliances, public, within the Federal Palace. I have to pay for it?	-1
unfortunately for #brasil Dilma will be re-elected. It is a shame but it's the reality.	-1
Dilma Jackpot follows plucking Mr wings	-1
If Danilo Gentili program does not have the "Dilma" will already be better than Rafinha Bastos: v #TheNoite	0
there u go out on the disheveled street, find a friend, some children, the dilma, Zayn Malik	0
Dilma know coz they are helped, 'cause the parents need vegetables, fruits, eggs, etc., the parents need apopulacao also nec really think about it.	0
Voice of Brazil, Dilma calling for President	0
720.00 reais ???? Very well-paid ??? kkkkkkkkkkkkkkkkkkk ta wanting drooling egg Dilma or what ?????	-1
The summary of the day p / BR is the sgte: bla bla bla dilma / fear and scabs, petrobras at rock bottom, the people c / rope.	-1
Look at @diImabr tictaqueando late on Monday! Dilma mega jackpot, bro. B-)	0
First the FHC complains Lula smile and Dilma, Lula now calls for a debate. This kid're smoking marijuana spoiled?	-1
Public Insecurity in dilma misrule en kills much more than the war in Syria and more than Ditabranda military in the years of lead	-1
Dilma do not have to adjust anything, and forgive, and he also has q retire and be paid by the time q has q working on ne field think about it.	0
The @diImabr like to state that does not receive anything Dilma / Gov Federal / PT. What a joke seen ?!	-1
dilma singing lepo lepo	0
Dilma support PMDB in six states where the PT will also release names.	0
Dilma creates a pouch xerox please there	0
